{"frames": {

"deer.png":
{
	"frame": {"x":2,"y":2,"w":50,"h":54},
	"rotated": false,
	"trimmed": true,
	"spriteSourceSize": {"x":1,"y":0,"w":50,"h":54},
	"sourceSize": {"w":54,"h":54}
},
"horse.png":
{
	"frame": {"x":54,"y":44,"w":50,"h":38},
	"rotated": false,
	"trimmed": true,
	"spriteSourceSize": {"x":2,"y":16,"w":50,"h":38},
	"sourceSize": {"w":54,"h":54}
},
"horse_0.png":
{
	"frame": {"x":2,"y":58,"w":50,"h":37},
	"rotated": false,
	"trimmed": false,
	"spriteSourceSize": {"x":0,"y":0,"w":50,"h":37},
	"sourceSize": {"w":50,"h":37}
},
"pony.png":
{
	"frame": {"x":54,"y":84,"w":46,"h":34},
	"rotated": false,
	"trimmed": true,
	"spriteSourceSize": {"x":4,"y":20,"w":46,"h":34},
	"sourceSize": {"w":54,"h":54}
},
"warhorse.png":
{
	"frame": {"x":54,"y":2,"w":52,"h":40},
	"rotated": false,
	"trimmed": true,
	"spriteSourceSize": {"x":1,"y":14,"w":52,"h":40},
	"sourceSize": {"w":54,"h":54}
}},
"meta": {
	"app": "http://www.codeandweb.com/texturepacker ",
	"version": "1.0",
	"image": "horses.png",
	"format": "RGBA8888",
	"size": {"w":128,"h":128},
	"scale": "1",
	"smartupdate": "$TexturePacker:SmartUpdate:2a0dc477a14c401a128545f6cc6f8df3$"
}
}
